{
	"A1" : {
		"A1":"484403345633705997",
		"1":"484405826048491530",
		"2":"484405869564526623",
		"3":"484405885574316043",
		"4":"484405908101660684",
		"5":"484405925801623572",
		"6":"484405939974307865",
		"7":"484406083893329921",
		"8":"484406110950785036"
	},
	"A2" : {
		"A2":"484405727344066571",
		"1":"484406145092419605",
		"2":"484406175958433792",
		"3":"484406203036991499",
		"4":"484406218991992863",
		"5":"484406236536635413",
		"6":"484406312113799169",
		"OS":{
			"OS":"538043347105742849",
			"os1":"538043399064780812",
			"os2":"538043415141810176"
		},
		"AT":{
			"AT":"538043237072371712", 
			"at1":"538043314809602068",
			"at2":"538043452177383444",
			"at3":"538043476592295966" 
		}
	},
	"LP":{
		"A3":"617708601179373568",
		"CDAD":"618850082149892106",
		"ARS":"618850221958365184"
	},
	"Ancien":"484436080695836674",
	"Autre":"752227347075432480",
	"Professeur":"484437145000607765"
}